<?xml version="1.0" standalone="no"?>
<!DOCTYPE svg PUBLIC "-//W3C//DTD SVG 20010904//EN"
 "http://www.w3.org/TR/2001/REC-SVG-20010904/DTD/svg10.dtd">
<svg version="1.0" xmlns="http://www.w3.org/2000/svg"
 width="1920.000000pt" height="570.000000pt" viewBox="0 0 1920.000000 570.000000"
 preserveAspectRatio="xMidYMid meet" style="background-color:;">
<metadata>
Created by potrace 1.16, written by Peter Selinger 2001-2019
</metadata>
<g transform="translate(0.000000,570.000000) scale(0.100000,-0.100000)"
fill="#000000" stroke="none">
<path id="backgroundSlider" d="M0 3217 l0 -2484 113 28 c376 95 854 172 1322 214 354 32 1149 30
2005 -5 504 -21 1292 -90 2905 -255 2290 -234 2775 -272 5345 -415 1339 -74
1349 -75 2270 -75 1208 0 1607 21 2787 145 913 97 1368 163 2221 321 l232 43
0 2483 0 2483 -9600 0 -9600 0 0 -2483z"/>
</g>
</svg>
